<?xml version="1.0" encoding="utf-8"?>
<!-- Generator: Adobe Illustrator 21.1.0, SVG Export Plug-In . SVG Version: 6.00 Build 0)  -->
<svg version="1.1" id="Layer_1" xmlns="http://www.w3.org/2000/svg" xmlns:xlink="http://www.w3.org/1999/xlink" x="0px" y="0px"
	 width="59px" height="120px" viewBox="0 0 59 120" enable-background="new 0 0 59 120" xml:space="preserve">
<path d="M0,60c0-0.9,0.3-1.8,1-2.5L53.3,1c1.3-1.4,3.3-1.4,4.6,0s1.3,3.6,0,5l-50,54l50,54c1.3,1.4,1.3,3.6,0,5s-3.3,1.4-4.6,0
	L1,62.5C0.3,61.8,0,60.9,0,60z"/>
</svg>
