<?xml version="1.0" encoding="utf-8"?>
<!-- Generator: Adobe Illustrator 19.0.0, SVG Export Plug-In . SVG Version: 6.00 Build 0)  -->
<svg version="1.1" id="Layer_1" xmlns="http://www.w3.org/2000/svg" xmlns:xlink="http://www.w3.org/1999/xlink" x="0px" y="0px"
	 width="102.1px" height="102.1px" viewBox="0 0 102.1 102.1" enable-background="new 0 0 102.1 102.1" xml:space="preserve">
<path d="M51.1,0.1c-28.2,0-51,22.8-51,51s22.8,51,51,51s51-22.8,51-51S79.2,0.1,51.1,0.1z M90.6,27c-9.9,2.2-21.2,7.1-31.5,15.5
	c-1.1-1.6-2.2-3.1-3.3-4.6c8.5-9.1,13.9-18.8,17.1-27.7c0,0,0,0,0,0C80.2,14.1,86.3,20,90.6,27z M67.8,7.9
	c-0.6,6.8-6.2,16.7-15.2,26C45.1,25.1,36.3,17.6,26.3,12C33.5,7.4,42,4.8,51.1,4.8C57,4.8,62.6,5.9,67.8,7.9z M21.1,15.8
	c10,3.2,19.7,11.2,28,21.5C38,47.8,22.7,57,5.6,59.7c-0.5-2.8-0.8-5.7-0.8-8.7C4.8,37,11.1,24.3,21.1,15.8z M7.1,65.5
	C7.1,65.5,7.1,65.5,7.1,65.5c20.1-5.4,34.7-14.2,45.1-24.1c1,1.4,2,2.9,3,4.3C43.9,56.1,34,71,28.5,91.5
	C18.5,85.9,10.8,76.6,7.1,65.5z M34,94.1c2.2-16.9,11.9-32.6,23.9-44c8,13.6,13.3,29,13.9,42.4c-6.2,3.1-13.3,4.9-20.7,4.9
	C45.1,97.4,39.3,96.2,34,94.1z M77.9,88.8c-2.8-15.3-8.3-29.7-16.1-42.2c10.4-8.8,22-14.3,31.5-14.6c2.6,5.8,4.1,12.3,4.1,19.1
	C97.4,66.6,89.7,80.4,77.9,88.8z"/>
</svg>
